{
	"highscores": {
		"world": "Vunira",
		"category": "experience",
		"vocation": "paladins",
		"highscore_list": [
			{
				"rank": 1,
				"name": "Partyboost",
				"vocation": "Royal Paladin",
				"world": "Vunira",
				"level": 2069,
				"value": 147334984452
			},
			{
				"rank": 2,
				"name": "Not Radraz",
				"vocation": "Royal Paladin",
				"world": "Vunira",
				"level": 1825,
				"value": 101026101477
			},
			{
				"rank": 3,
				"name": "True Abdosz",
				"vocation": "Royal Paladin",
				"world": "Vunira",
				"level": 1691,
				"value": 80409692156
			},
			{
				"rank": 4,
				"name": "Sabziro",
				"vocation": "Royal Paladin",
				"world": "Vunira",
				"level": 1673,
				"value": 77869583812
			},
			{
				"rank": 5,
				"name": "Sinsor",
				"vocation": "Royal Paladin",
				"world": "Vunira",
				"level": 1655,
				"value": 75312672324
			},
			{
				"rank": 6,
				"name": "Nozyk",
				"vocation": "Royal Paladin",
				"world": "Vunira",
				"level": 1652,
				"value": 74910793956
			},
			{
				"rank": 7,
				"name": "Alex Froggy",
				"vocation": "Royal Paladin",
				"world": "Vunira",
				"level": 1634,
				"value": 72492039969
			},
			{
				"rank": 8,
				"name": "Mathias Bynens",
				"vocation": "Royal Paladin",
				"world": "Vunira",
				"level": 1562,
				"value": 63347986145
			},
			{
				"rank": 9,
				"name": "Saint Tristen",
				"vocation": "Royal Paladin",
				"world": "Vunira",
				"level": 1546,
				"value": 61444981476
			},
			{
				"rank": 10,
				"name": "Lanchadanan",
				"vocation": "Royal Paladin",
				"world": "Vunira",
				"level": 1430,
				"value": 48620483655
			},
			{
				"rank": 11,
				"name": "Wojjtekk",
				"vocation": "Royal Paladin",
				"world": "Vunira",
				"level": 1419,
				"value": 47423905245
			},
			{
				"rank": 12,
				"name": "Bea Charlover Aca",
				"vocation": "Royal Paladin",
				"world": "Vunira",
				"level": 1417,
				"value": 47266787193
			},
			{
				"rank": 13,
				"name": "Reo Light",
				"vocation": "Royal Paladin",
				"world": "Vunira",
				"level": 1409,
				"value": 46502760526
			},
			{
				"rank": 14,
				"name": "Mad Bully",
				"vocation": "Royal Paladin",
				"world": "Vunira",
				"level": 1400,
				"value": 45560332624
			},
			{
				"rank": 15,
				"name": "Yes Yes",
				"vocation": "Royal Paladin",
				"world": "Vunira",
				"level": 1388,
				"value": 44467835499
			},
			{
				"rank": 16,
				"name": "Pastor Koylu",
				"vocation": "Royal Paladin",
				"world": "Vunira",
				"level": 1374,
				"value": 43091881716
			},
			{
				"rank": 17,
				"name": "Kimpsuu",
				"vocation": "Royal Paladin",
				"world": "Vunira",
				"level": 1350,
				"value": 40913452803
			},
			{
				"rank": 18,
				"name": "Unlegitrod",
				"vocation": "Royal Paladin",
				"world": "Vunira",
				"level": 1348,
				"value": 40727424148
			},
			{
				"rank": 19,
				"name": "Zoxerr",
				"vocation": "Royal Paladin",
				"world": "Vunira",
				"level": 1326,
				"value": 38756925347
			},
			{
				"rank": 20,
				"name": "Bastu Boris",
				"vocation": "Royal Paladin",
				"world": "Vunira",
				"level": 1320,
				"value": 38188955873
			},
			{
				"rank": 21,
				"name": "Bluemoon Kimimaro",
				"vocation": "Royal Paladin",
				"world": "Vunira",
				"level": 1314,
				"value": 37656337470
			},
			{
				"rank": 22,
				"name": "Linkirvana",
				"vocation": "Royal Paladin",
				"world": "Vunira",
				"level": 1269,
				"value": 33931770450
			},
			{
				"rank": 23,
				"name": "Mepak",
				"vocation": "Royal Paladin",
				"world": "Vunira",
				"level": 1267,
				"value": 33747797559
			},
			{
				"rank": 24,
				"name": "Troxydogg The Bountyhunter",
				"vocation": "Royal Paladin",
				"world": "Vunira",
				"level": 1266,
				"value": 33695773840
			},
			{
				"rank": 25,
				"name": "Galatus",
				"vocation": "Royal Paladin",
				"world": "Vunira",
				"level": 1260,
				"value": 33217330276
			},
			{
				"rank": 26,
				"name": "Anardiel",
				"vocation": "Royal Paladin",
				"world": "Vunira",
				"level": 1249,
				"value": 32365063027
			},
			{
				"rank": 27,
				"name": "Royal druidiaaa",
				"vocation": "Royal Paladin",
				"world": "Vunira",
				"level": 1246,
				"value": 32140797050
			},
			{
				"rank": 28,
				"name": "Gnoors",
				"vocation": "Royal Paladin",
				"world": "Vunira",
				"level": 1233,
				"value": 31129149229
			},
			{
				"rank": 29,
				"name": "Lakroz",
				"vocation": "Royal Paladin",
				"world": "Vunira",
				"level": 1220,
				"value": 30165130481
			},
			{
				"rank": 30,
				"name": "Super Pinchito",
				"vocation": "Paladin",
				"world": "Vunira",
				"level": 1214,
				"value": 29724440098
			},
			{
				"rank": 31,
				"name": "Alriken",
				"vocation": "Royal Paladin",
				"world": "Vunira",
				"level": 1190,
				"value": 27959674147
			},
			{
				"rank": 32,
				"name": "Overlord Dagnars",
				"vocation": "Royal Paladin",
				"world": "Vunira",
				"level": 1188,
				"value": 27847586625
			},
			{
				"rank": 33,
				"name": "Mega Marjan",
				"vocation": "Royal Paladin",
				"world": "Vunira",
				"level": 1177,
				"value": 27058050386
			},
			{
				"rank": 34,
				"name": "Carpo",
				"vocation": "Royal Paladin",
				"world": "Vunira",
				"level": 1155,
				"value": 25559738485
			},
			{
				"rank": 35,
				"name": "Venus",
				"vocation": "Royal Paladin",
				"world": "Vunira",
				"level": 1152,
				"value": 25351547984
			},
			{
				"rank": 36,
				"name": "Glockad",
				"vocation": "Royal Paladin",
				"world": "Vunira",
				"level": 1127,
				"value": 23768200489
			},
			{
				"rank": 37,
				"name": "Draakz",
				"vocation": "Royal Paladin",
				"world": "Vunira",
				"level": 1126,
				"value": 23723506486
			},
			{
				"rank": 38,
				"name": "Mazzika Raa",
				"vocation": "Royal Paladin",
				"world": "Vunira",
				"level": 1123,
				"value": 23492566124
			},
			{
				"rank": 39,
				"name": "Tad Dzik",
				"vocation": "Royal Paladin",
				"world": "Vunira",
				"level": 1098,
				"value": 21975221022
			},
			{
				"rank": 40,
				"name": "Claq",
				"vocation": "Royal Paladin",
				"world": "Vunira",
				"level": 1090,
				"value": 21516262875
			},
			{
				"rank": 41,
				"name": "King Baani",
				"vocation": "Royal Paladin",
				"world": "Vunira",
				"level": 1089,
				"value": 21458030661
			},
			{
				"rank": 42,
				"name": "Krysson",
				"vocation": "Royal Paladin",
				"world": "Vunira",
				"level": 1082,
				"value": 21004020807
			},
			{
				"rank": 43,
				"name": "Crim Moon",
				"vocation": "Royal Paladin",
				"world": "Vunira",
				"level": 1074,
				"value": 20559030414
			},
			{
				"rank": 44,
				"name": "Pan Szympans",
				"vocation": "Royal Paladin",
				"world": "Vunira",
				"level": 1072,
				"value": 20457233937
			},
			{
				"rank": 45,
				"name": "Pumpamm",
				"vocation": "Royal Paladin",
				"world": "Vunira",
				"level": 1059,
				"value": 19723097159
			},
			{
				"rank": 46,
				"name": "Kubus Oficjalnie",
				"vocation": "Royal Paladin",
				"world": "Vunira",
				"level": 1053,
				"value": 19395221118
			},
			{
				"rank": 47,
				"name": "Maan Temor",
				"vocation": "Royal Paladin",
				"world": "Vunira",
				"level": 1052,
				"value": 19344969755
			},
			{
				"rank": 48,
				"name": "Gala Tuga",
				"vocation": "Royal Paladin",
				"world": "Vunira",
				"level": 1045,
				"value": 18950044014
			},
			{
				"rank": 49,
				"name": "Peexee Charlover",
				"vocation": "Royal Paladin",
				"world": "Vunira",
				"level": 1043,
				"value": 18829783685
			},
			{
				"rank": 50,
				"name": "Ten Bez Talentny",
				"vocation": "Royal Paladin",
				"world": "Vunira",
				"level": 1040,
				"value": 18688302623
			}
		],
		"highscore_page": {
			"current_page": 1,
			"total_pages": 20,
			"total_records": 1000
		}
	},
	"information": {
		"api": {
			"version": 4,
			"release": "edge",
			"commit": "2942cc41cf05081c5e5e2db3326fc16b2ae3f115"
		},
		"tibia_urls": [
			"https://www.tibia.com/community/?subtopic=highscores&world=Vunira&category=6&profession=3&currentpage=1"
		],
		"status": {
			"http_code": 200
		}
	}
}
